// Jest Snapshot v1, https://goo.gl/fbAQLP

exports[`Positions table Should match snapshot 1`] = `
<div
  class="table"
>
  <div
    class="ant-table-wrapper sc-bdVaJa jKwhEl"
  >
    <div
      class="ant-spin-nested-loading"
    >
      <div
        class="ant-spin-container"
      >
        <div
          class="ant-table ant-table-default ant-table-empty ant-table-fixed-header ant-table-layout-fixed ant-table-scroll-position-left ant-table-scroll-position-right"
        >
          <div
            class="ant-table-content"
          >
            <div
              class="ant-table-scroll"
            >
              <div
                class="ant-table-header"
              >
                <table
                  class="ant-table-fixed"
                  style="width: 840px;"
                >
                  <colgroup>
                    <col
                      style="width: 180px; min-width: 180px;"
                    />
                    <col
                      style="width: 70px; min-width: 70px;"
                    />
                    <col
                      style="width: 120px; min-width: 120px;"
                    />
                    <col
                      style="width: 120px; min-width: 120px;"
                    />
                    <col
                      style="width: 120px; min-width: 120px;"
                    />
                    <col
                      style="width: 120px; min-width: 120px;"
                    />
                    <col
                      style="width: 120px; min-width: 120px;"
                    />
                  </colgroup>
                  <thead
                    class="ant-table-thead"
                  >
                    <tr>
                      <th
                        class="ant-table-fixed-columns-in-body ant-table-align-left ant-table-row-cell-break-word"
                        style="text-align: left;"
                      >
                        <span
                          class="ant-table-header-column"
                        >
                          <div>
                            <span
                              class="ant-table-column-title"
                            >
                              Contract
                            </span>
                            <span
                              class="ant-table-column-sorter"
                            />
                          </div>
                        </span>
                      </th>
                      <th
                        class="ant-table-fixed-columns-in-body ant-table-align-center ant-table-row-cell-break-word"
                        style="text-align: center;"
                      >
                        <span
                          class="ant-table-header-column"
                        >
                          <div>
                            <span
                              class="ant-table-column-title"
                            >
                              Side
                            </span>
                            <span
                              class="ant-table-column-sorter"
                            />
                          </div>
                        </span>
                      </th>
                      <th
                        class="ant-table-align-right ant-table-row-cell-break-word"
                        style="text-align: right;"
                      >
                        <span
                          class="ant-table-header-column"
                        >
                          <div>
                            <span
                              class="ant-table-column-title"
                            >
                              <div
                                class="head-title"
                              >
                                Amount
                                <br />
                                <label
                                  class="sub"
                                >
                                  Traded USDT
                                </label>
                              </div>
                            </span>
                            <span
                              class="ant-table-column-sorter"
                            />
                          </div>
                        </span>
                      </th>
                      <th
                        class="ant-table-align-right ant-table-row-cell-break-word"
                        style="text-align: right;"
                      >
                        <span
                          class="ant-table-header-column"
                        >
                          <div>
                            <span
                              class="ant-table-column-title"
                            >
                              Entry Price
                            </span>
                            <span
                              class="ant-table-column-sorter"
                            />
                          </div>
                        </span>
                      </th>
                      <th
                        class="ant-table-align-right ant-table-row-cell-break-word"
                        style="text-align: right;"
                      >
                        <span
                          class="ant-table-header-column"
                        >
                          <div>
                            <span
                              class="ant-table-column-title"
                            >
                              Current Price
                            </span>
                            <span
                              class="ant-table-column-sorter"
                            />
                          </div>
                        </span>
                      </th>
                      <th
                        class="ant-table-fixed-columns-in-body ant-table-align-right ant-table-row-cell-break-word"
                        style="text-align: right;"
                      >
                        <span
                          class="ant-table-header-column"
                        >
                          <div>
                            <span
                              class="ant-table-column-title"
                            >
                              <div
                                class="head-title"
                              >
                                PnL
                                <br />
                                <label
                                  class="sub"
                                >
                                  Unrealised USDT
                                </label>
                              </div>
                            </span>
                            <span
                              class="ant-table-column-sorter"
                            />
                          </div>
                        </span>
                      </th>
                      <th
                        class="ant-table-fixed-columns-in-body ant-table-align-right ant-table-row-cell-break-word ant-table-row-cell-last"
                        style="text-align: right;"
                      >
                        <span
                          class="ant-table-header-column"
                        >
                          <div>
                            <span
                              class="ant-table-column-title"
                            >
                              Actions
                            </span>
                            <span
                              class="ant-table-column-sorter"
                            />
                          </div>
                        </span>
                      </th>
                    </tr>
                  </thead>
                </table>
              </div>
              <div
                class="ant-table-body"
                style="overflow-x: scroll; max-height: 180px; overflow-y: scroll;"
                tabindex="-1"
              >
                <table
                  class="ant-table-fixed"
                  style="width: 840px;"
                >
                  <colgroup>
                    <col
                      style="width: 180px; min-width: 180px;"
                    />
                    <col
                      style="width: 70px; min-width: 70px;"
                    />
                    <col
                      style="width: 120px; min-width: 120px;"
                    />
                    <col
                      style="width: 120px; min-width: 120px;"
                    />
                    <col
                      style="width: 120px; min-width: 120px;"
                    />
                    <col
                      style="width: 120px; min-width: 120px;"
                    />
                    <col
                      style="width: 120px; min-width: 120px;"
                    />
                  </colgroup>
                  <tbody
                    class="ant-table-tbody"
                  />
                </table>
              </div>
              <div
                class="ant-table-placeholder"
              >
                <div
                  class="ant-empty ant-empty-normal"
                >
                  <div
                    class="ant-empty-image"
                  >
                    <svg
                      height="41"
                      viewBox="0 0 64 41"
                      width="64"
                      xmlns="http://www.w3.org/2000/svg"
                    >
                      <g
                        fill="none"
                        fill-rule="evenodd"
                        transform="translate(0 1)"
                      >
                        <ellipse
                          cx="32"
                          cy="33"
                          fill="#F5F5F5"
                          rx="32"
                          ry="7"
                        />
                        <g
                          fill-rule="nonzero"
                          stroke="#D9D9D9"
                        >
                          <path
                            d="M55 12.76L44.854 1.258C44.367.474 43.656 0 42.907 0H21.093c-.749 0-1.46.474-1.947 1.257L9 12.761V22h46v-9.24z"
                          />
                          <path
                            d="M41.613 15.931c0-1.605.994-2.93 2.227-2.931H55v18.137C55 33.26 53.68 35 52.05 35h-40.1C10.32 35 9 33.259 9 31.137V13h11.16c1.233 0 2.227 1.323 2.227 2.928v.022c0 1.605 1.005 2.901 2.237 2.901h14.752c1.232 0 2.237-1.308 2.237-2.913v-.007z"
                            fill="#FAFAFA"
                          />
                        </g>
                      </g>
                    </svg>
                  </div>
                  <p
                    class="ant-empty-description"
                  >
                    No Data
                  </p>
                </div>
              </div>
            </div>
            <div
              class="ant-table-fixed-left"
            >
              <div
                class="ant-table-header"
              >
                <table
                  class="ant-table-fixed"
                >
                  <colgroup>
                    <col
                      style="width: 180px; min-width: 180px;"
                    />
                    <col
                      style="width: 70px; min-width: 70px;"
                    />
                  </colgroup>
                  <thead
                    class="ant-table-thead"
                  >
                    <tr>
                      <th
                        class="ant-table-align-left ant-table-row-cell-break-word"
                        style="text-align: left;"
                      >
                        <span
                          class="ant-table-header-column"
                        >
                          <div>
                            <span
                              class="ant-table-column-title"
                            >
                              Contract
                            </span>
                            <span
                              class="ant-table-column-sorter"
                            />
                          </div>
                        </span>
                      </th>
                      <th
                        class="ant-table-align-center ant-table-row-cell-break-word ant-table-row-cell-last"
                        style="text-align: center;"
                      >
                        <span
                          class="ant-table-header-column"
                        >
                          <div>
                            <span
                              class="ant-table-column-title"
                            >
                              Side
                            </span>
                            <span
                              class="ant-table-column-sorter"
                            />
                          </div>
                        </span>
                      </th>
                    </tr>
                  </thead>
                </table>
              </div>
              <div
                class="ant-table-body-outer"
              >
                <div
                  class="ant-table-body-inner"
                  style="max-height: 180px; overflow-y: scroll;"
                >
                  <table
                    class="ant-table-fixed"
                  >
                    <colgroup>
                      <col
                        style="width: 180px; min-width: 180px;"
                      />
                      <col
                        style="width: 70px; min-width: 70px;"
                      />
                    </colgroup>
                    <tbody
                      class="ant-table-tbody"
                    />
                  </table>
                </div>
              </div>
            </div>
            <div
              class="ant-table-fixed-right"
            >
              <div
                class="ant-table-header"
              >
                <table
                  class="ant-table-fixed"
                >
                  <colgroup>
                    <col
                      style="width: 120px; min-width: 120px;"
                    />
                    <col
                      style="width: 120px; min-width: 120px;"
                    />
                  </colgroup>
                  <thead
                    class="ant-table-thead"
                  >
                    <tr>
                      <th
                        class="ant-table-align-right ant-table-row-cell-break-word"
                        style="text-align: right;"
                      >
                        <span
                          class="ant-table-header-column"
                        >
                          <div>
                            <span
                              class="ant-table-column-title"
                            >
                              <div
                                class="head-title"
                              >
                                PnL
                                <br />
                                <label
                                  class="sub"
                                >
                                  Unrealised USDT
                                </label>
                              </div>
                            </span>
                            <span
                              class="ant-table-column-sorter"
                            />
                          </div>
                        </span>
                      </th>
                      <th
                        class="ant-table-align-right ant-table-row-cell-break-word ant-table-row-cell-last"
                        style="text-align: right;"
                      >
                        <span
                          class="ant-table-header-column"
                        >
                          <div>
                            <span
                              class="ant-table-column-title"
                            >
                              Actions
                            </span>
                            <span
                              class="ant-table-column-sorter"
                            />
                          </div>
                        </span>
                      </th>
                    </tr>
                  </thead>
                </table>
              </div>
              <div
                class="ant-table-body-outer"
              >
                <div
                  class="ant-table-body-inner"
                  style="max-height: 180px; overflow-y: scroll;"
                >
                  <table
                    class="ant-table-fixed"
                  >
                    <colgroup>
                      <col
                        style="width: 120px; min-width: 120px;"
                      />
                      <col
                        style="width: 120px; min-width: 120px;"
                      />
                    </colgroup>
                    <tbody
                      class="ant-table-tbody"
                    />
                  </table>
                </div>
              </div>
            </div>
          </div>
        </div>
      </div>
    </div>
  </div>
</div>
`;
