﻿<?xml version="1.0" encoding="utf-8"?>
<svg version="1.1" xmlns:xlink="http://www.w3.org/1999/xlink" width="22px" height="24px" xmlns="http://www.w3.org/2000/svg">
  <g transform="matrix(1 0 0 1 -1034 -64 )">
    <path d="M 21.9121550766569 17.1221683282008  C 21.9172820225722 13.8057667418905  19.5361818553693 11.03465245127  16.4349288571313 10.3893896867958  L 16.4349288571313 5.84746493325244  C 16.4349288571313 5.71746020982158  16.3748703478386 5.59734319123614  16.2899095298147 5.50231157487435  L 11.197753628159 0.155090125654511  C 11.1027220117972 0.0551146568700138  10.967590389326 0  10.8326418603474 0  L 2.75916683867163 0  C 1.26869046590403 0  0.0781403588651204 1.21545241577004  0 2.7061119289051  L 0 17.9725088824094  C 0.0781403588651204 19.4631684424194  1.26869046590403 20.6586623550061  2.75916683867163 20.6586623550061  L 9.13196065818032 20.6586623550061  C 10.3373422287375 22.6594530101442  12.5283792100917 23.9999662500475  15.0242863095974 23.9999662500475  C 18.8158459308417 23.9999662500475  21.9121550766569 20.9186717549928  21.9121550766569 17.1221683282008  Z M 11.3328852506301 4.14678373108538  L 11.3328852506301 1.75579585903707  L 14.7492623057249 5.35216534851748  L 12.5333230625144 5.35216534851748  C 11.8730456472796 5.35216534851748  11.3328852506301 4.80706109944533  11.3328852506301 4.14678373108538  Z M 2.75916683867163 19.663302426606  L 2.75916683867163 19.6581754806907  C 1.82386546643919 19.6581754806907  1.07862723318045 18.9078103483917  1 17.9725088824094  L 1 2.7061119289051  C 1.07862723318045 1.76568356388249  1.82386546643919 1.00048687431533  2.75916683867163 1.00048687431533  L 10.3323983763148 1.00048687431533  L 10.3323983763148 4.14678373108538  C 10.3323983763148 5.36223609998048  11.3178706467444 6.35265222283281  12.5333230625144 6.35265222283281  L 15.434441982816 6.35265222283281  L 15.434441982816 10.2592018698724  C 15.2844788499516 10.2542580174497  15.1643618313662 10.2392434135639  15.0343571079353 10.2392434135639  C 13.2886320472362 10.2392434135639  11.682982414556 10.9095915802618  10.4724738980836 11.9600662124069  L 4.11982167525077 11.9600662124069  C 3.84461453101082 11.9600662124069  3.6195782380931 12.1851025053246  3.6195782380931 12.4601265091971  C 3.6195782380931 12.735333653437  3.84461453101082 12.9603699463548  4.11982167525077 12.9603699463548  L 9.54211633139891 12.9603699463548  C 9.18689217468288 13.4606133835124  8.89172662100944 13.9608568206701  8.66174647566902 14.5110879687825  L 4.11982167525077 14.5110879687825  C 3.84461453101082 14.5110879687825  3.6195782380931 14.7361243085752  3.6195782380931 15.0113314528151  C 3.6195782380931 15.2863554566876  3.84461453101082 15.5115748430979  4.11982167525077 15.5115748430979  L 8.33655162047428 15.5115748430979  C 8.21149074946613 16.0118183271305  8.1464883877507 16.5669933276656  8.1464883877507 17.1221683282008  C 8.1464883877507 18.0224966402391  8.32153696971364 18.912937247432  8.63666102657043 19.663302426606  L 2.75916683867163 19.663302426606  Z M 20.9067243499189 17.1271121337486  C 20.9067243499189 20.3684406068804  18.2707417286444 23.0046063216474  15.0294133023875 23.0046063216474  C 11.7880848292557 23.0046063216474  9.15191911448875 20.3684406068804  9.15191911448875 17.1271121337486  C 9.15191911448875 13.8857837074917  11.7829578833405 11.2496179927247  15.0294133023875 11.2496179927247  C 18.2756855810672 11.2496179927247  20.9067243499189 13.8857837074917  20.9067243499189 17.1271121337486  Z " fill-rule="nonzero" fill="#879ba6" stroke="none" transform="matrix(1 0 0 1 1034 64 )" />
  </g>
</svg>