﻿<?xml version="1.0" encoding="utf-8"?>
<svg version="1.1" xmlns:xlink="http://www.w3.org/1999/xlink" width="14px" height="16px" xmlns="http://www.w3.org/2000/svg">
  <g transform="matrix(1 0 0 1 -272 -242 )">
    <path d="M 3.64444444444445 5.09090909090909  L 3.64444444444445 7.27272727272727  L 9.47555555555556 7.27272727272727  L 9.47555555555556 5.09090909090909  C 9.47555555555556 4.28787878787879  9.19083333333333 3.60227272727273  8.62138888888889 3.03409090909091  C 8.05194444444444 2.46590909090909  7.36481481481482 2.18181818181818  6.56 2.18181818181818  C 5.75518518518518 2.18181818181818  5.06805555555556 2.46590909090909  4.49861111111112 3.03409090909091  C 3.92916666666667 3.60227272727273  3.64444444444445 4.28787878787879  3.64444444444445 5.09090909090909  Z M 12.8011111111111 7.59090909090909  C 13.0137037037037 7.8030303030303  13.12 8.06060606060606  13.12 8.36363636363636  L 13.12 14.9090909090909  C 13.12 15.2121212121212  13.0137037037037 15.469696969697  12.8011111111111 15.6818181818182  C 12.5885185185185 15.8939393939394  12.3303703703704 16  12.0266666666667 16  L 1.09333333333333 16  C 0.78962962962963 16  0.531481481481478 15.8939393939394  0.318888888888893 15.6818181818182  C 0.106296296296293 15.469696969697  0 15.2121212121212  0 14.9090909090909  L 0 8.36363636363636  C 0 8.06060606060606  0.106296296296293 7.8030303030303  0.318888888888893 7.59090909090909  C 0.531481481481478 7.37878787878788  0.78962962962963 7.27272727272727  1.09333333333333 7.27272727272727  L 1.45777777777778 7.27272727272727  L 1.45777777777778 5.09090909090909  C 1.45777777777778 3.6969696969697  1.95888888888889 2.5  2.96111111111111 1.5  C 3.96333333333334 0.5  5.16296296296296 0  6.56 0  C 7.95703703703704 0  9.15666666666667 0.5  10.1588888888889 1.5  C 11.1611111111111 2.5  11.6622222222222 3.6969696969697  11.6622222222222 5.09090909090909  L 11.6622222222222 7.27272727272727  L 12.0266666666667 7.27272727272727  C 12.3303703703704 7.27272727272727  12.5885185185185 7.37878787878788  12.8011111111111 7.59090909090909  Z " fill-rule="nonzero" fill="#ffffff" stroke="none" fill-opacity="0.298039215686275" transform="matrix(1 0 0 1 272 242 )" />
  </g>
</svg>