<svg id="Capa_1" data-name="Capa 1" xmlns="http://www.w3.org/2000/svg" viewBox="0 0 59.41 59.41">
    <defs>
        <style>.cls-1{fill:#fff;stroke:#fff;stroke-miterlimit:10;stroke-width:2px;}</style>
    </defs>
    <title>Mic-off</title>
    <path d="M44,28a1,1,0,0,0-1,1v6a14,14,0,0,1-28,0V29a1,1,0,0,0-2,0v6A16,16,0,0,0,28,51v5H23a1,1,0,0,0,0,2H35a1,1,0,0,0,0-2H30V51A16,16,0,0,0,45,35V29A1,1,0,0,0,44,28Z"
          transform="translate(0.71 0.71)"/>
    <path d="M29,46A11,11,0,0,0,40,35V11a11,11,0,0,0-22,0V35A11,11,0,0,0,29,46ZM20,11a9,9,0,0,1,18,0V35a9,9,0,0,1-18,0Z"
          transform="translate(0.71 0.71)"/>
    <line class="cls-1" x1="0.71" y1="0.71" x2="58.71" y2="58.71"/>
    <path class="cls-1" d="M368.25-141.12" transform="translate(0.71 0.71)"/>
</svg>
