<svg id="Capa_1" data-name="Capa 1" xmlns="http://www.w3.org/2000/svg" viewBox="0 0 60 59.41">
    <defs>
        <style>.cls-1{fill:#fff;stroke:#fff;stroke-miterlimit:10;stroke-width:2px;}</style>
    </defs>
    <title>sound-off</title>
    <path d="M28.4,7.76a3,3,0,0,0-3.09,0l-.13.09L11.63,19.36H1a1,1,0,0,0-1,1v19a1,1,0,0,0,.29.71,1,1,0,0,0,.71.29H11.61L25.15,52.79a.83.83,0,0,0,.16.12,3.07,3.07,0,0,0,1.59.45A3.13,3.13,0,0,0,30,50.2V10.51A3.11,3.11,0,0,0,28.4,7.76ZM28,50.2a1.17,1.17,0,0,1-.58,1,1.07,1.07,0,0,1-1,0L13,38.91V34.36a1,1,0,0,0-2,0v4H2v-17h9v4a1,1,0,0,0,2,0V20.82L26.4,9.48a1,1,0,0,1,1,0,1.14,1.14,0,0,1,.58,1Z"
          transform="translate(0 -0.29)"/>
    <path d="M52,29.86A19.49,19.49,0,0,0,38.8,11.41a1,1,0,0,0-.65,1.9,17.47,17.47,0,0,1,0,33.1,1,1,0,0,0,.32,2,1.13,1.13,0,0,0,.32,0A19.5,19.5,0,0,0,52,29.86Z"
          transform="translate(0 -0.29)"/>
    <path d="M44.45,6.37a1,1,0,0,0-1.31.53,1,1,0,0,0,.53,1.32A23.5,23.5,0,0,1,43,51.77a1,1,0,0,0-.58,1.3,1,1,0,0,0,.94.63,1.13,1.13,0,0,0,.36-.06,25.51,25.51,0,0,0,.74-47.27Z"
          transform="translate(0 -0.29)"/>
    <path d="M43,29.86a13.56,13.56,0,0,0-9.75-13,1,1,0,0,0-.56,1.92,11.49,11.49,0,0,1,0,22.08A1,1,0,0,0,32,42.14a1,1,0,0,0,1,.72.9.9,0,0,0,.28,0A13.56,13.56,0,0,0,43,29.86Z"
          transform="translate(0 -0.29)"/>
    <line class="cls-1" x1="1" y1="0.71" x2="59" y2="58.71"/>
</svg>
