// Jest Snapshot v1, https://goo.gl/fbAQLP

exports[`LanguageDropdown Should match snapshot 1`] = `
<div
  class="icon-button language-dropdown ant-dropdown-trigger"
>
  <span
    aria-label="en"
    role="img"
  >
    EN
  </span>
</div>
`;
