// Jest Snapshot v1, https://goo.gl/fbAQLP

exports[`Footer Should match snapshot 1`] = `
<div
  class="page-footer"
>
  <img
    alt="Coinflex"
    class="logo"
    src="coinflex_logo_light.png"
  />
  <div>
    Cryptocurrency Futures Exchange
  </div>
  <div
    class="copyright"
  >
    All Rights Reserved (C) 2020
  </div>
  <div>
    <a
      class="coinflex-link"
      href="https://coinflex.com/"
    >
      www.coinflex.com
    </a>
  </div>
  <div
    class="social-links"
  >
    <a
      class="telegram"
      href="https://t.me/coinflex_en"
      rel="noopener noreferrer"
      target="_blank"
      title="Telegram"
    >
      <img
        alt="Telegram"
        src="telegram.png"
      />
    </a>
    <a
      class="twitter"
      href="https://twitter.com/coinflexdotcom"
      rel="noopener noreferrer"
      target="_blank"
      title="Twitter"
    >
      <img
        alt="Twitter"
        src="twitter.png"
      />
    </a>
    <a
      class="facebook"
      href="https://www.facebook.com/coinflexdotcom/"
      rel="noopener noreferrer"
      target="_blank"
      title="Facebook"
    >
      <img
        alt="Facebook"
        src="facebook.png"
      />
    </a>
    <a
      class="linkedIn"
      href="https://www.linkedin.com/company/coinflex/about/"
      rel="noopener noreferrer"
      target="_blank"
      title="LinkedIn"
    >
      <img
        alt="LinkedIn"
        src="linkedin.png"
      />
    </a>
    <a
      class="medium"
      href="https://medium.com/coinflex-official"
      rel="noopener noreferrer"
      target="_blank"
      title="Medium"
    >
      <img
        alt="Medium"
        src="medium.png"
      />
    </a>
    <a
      class="blockfolio"
      href="https://blockfolio.com/coin/FLEX"
      rel="noopener noreferrer"
      target="_blank"
      title="Blockfolio"
    >
      <img
        alt="Blockfolio"
        src="blockfolio.png"
      />
    </a>
  </div>
</div>
`;
