// Jest Snapshot v1, https://goo.gl/fbAQLP

exports[`TradeConfirmPanel Should match snapshot 1`] = `
<div
  class="ticket-form"
>
  <div
    class="fix-content"
  >
    <div
      class="scroll-wrapper"
    >
      <div
        class="container"
      >
        <div
          class="ant-radio-group ant-radio-group-solid trade-type-radio"
        >
          <label
            class="ant-radio-button-wrapper"
          >
            <span
              class="ant-radio-button"
            >
              <input
                class="ant-radio-button-input"
                type="radio"
                value="1"
              />
              <span
                class="ant-radio-button-inner"
              />
            </span>
            <span>
              <span
                class="type"
              >
                BID
              </span>
              <span
                class="price"
              >
                210.5
              </span>
            </span>
          </label>
          <label
            class="ant-radio-button-wrapper ant-radio-button-wrapper-checked"
          >
            <span
              class="ant-radio-button ant-radio-button-checked"
            >
              <input
                checked=""
                class="ant-radio-button-input"
                type="radio"
                value="2"
              />
              <span
                class="ant-radio-button-inner"
              />
            </span>
            <span>
              <span
                class="price"
              >
                211
              </span>
              <span
                class="type"
              >
                ASK
              </span>
            </span>
          </label>
        </div>
        <div
          class="input-group"
        >
          <div
            class="input-wrapper"
          >
            <h1
              class="input-title"
            >
              Amount
            </h1>
            <span
              class="ant-input-group-wrapper"
            >
              <span
                class="ant-input-wrapper ant-input-group"
              >
                <input
                  class="ant-input ant-input-disabled"
                  disabled=""
                  type="number"
                  value=""
                />
                <span
                  class="ant-input-group-addon"
                >
                  <div
                    class="ant-radio-group ant-radio-group-solid trade-coin-radio"
                  >
                    <label
                      class="ant-radio-button-wrapper ant-radio-button-wrapper-checked"
                    >
                      <span
                        class="ant-radio-button ant-radio-button-checked"
                      >
                        <input
                          checked=""
                          class="ant-radio-button-input"
                          type="radio"
                          value="Amount"
                        />
                        <span
                          class="ant-radio-button-inner"
                        />
                      </span>
                      <span>
                        BCH
                      </span>
                    </label>
                  </div>
                </span>
              </span>
            </span>
            <p
              class="placeholder"
            >
              The quantity entered cannot be greater than the currentposition
            </p>
          </div>
        </div>
      </div>
    </div>
  </div>
  <div
    class="flex flex-column flex-content-between bottom-info"
  >
    <div
      class="confirm-bottom"
    >
      <div
        class="flex flex-content-between"
      >
        <a
          aria-disabled="false"
          class="am-button btn-confirm sell-button"
          role="button"
        >
          <span>
            Close Position
          </span>
        </a>
        <a
          aria-disabled="false"
          class="am-button btn-cancel"
          role="button"
        >
          Cancel
        </a>
      </div>
    </div>
  </div>
</div>
`;
