// Jest Snapshot v1, https://goo.gl/fbAQLP

exports[`Header Should match snapshot 1`] = `
<div
  class="header flex flex-content-between"
>
  <div
    class="logo"
  >
    <img
      alt="white logo"
      src="logo_white.png"
    />
  </div>
  <div
    class="flex right-part"
  >
    <div
      class="icon-button language-dropdown ant-dropdown-trigger"
    >
      <span
        aria-label="en"
        role="img"
      >
        EN
      </span>
    </div>
    <div
      class="icon-button"
    >
      <i
        class="anticon"
      >
        <svg
          aria-hidden="true"
          class=""
          fill="currentColor"
          focusable="false"
          height="1em"
          width="1em"
        >
          apps.svg
        </svg>
      </i>
    </div>
    <div
      class="icon-button"
      data-testid="tv-widget"
    >
      <i
        class="anticon"
      >
        <svg
          aria-hidden="true"
          class=""
          fill="currentColor"
          focusable="false"
          height="1em"
          width="1em"
        >
          tv.svg
        </svg>
      </i>
    </div>
    <div
      class="icon-button"
    >
      <i
        class="anticon"
      >
        <svg
          aria-hidden="true"
          class=""
          fill="currentColor"
          focusable="false"
          height="1em"
          width="1em"
        >
          headphones.svg
        </svg>
      </i>
    </div>
    <a
      href="/dashboard"
    >
      <div
        class="flex balance-info"
      >
        <img
          alt="wallet"
          src="wallet.png"
        />
      </div>
    </a>
    <div
      class="logout"
    >
      <button
        class="ant-btn flex flex-align-center ant-btn-link"
        type="button"
      >
        <span>
          Logout
        </span>
        <i
          class="icon-logout"
        />
      </button>
    </div>
  </div>
  <div
    class="dashboard-dropdown"
    style="height: 0px;"
  >
    <div
      class="dashboard-backdrop"
      data-testid="backdrop"
    />
    <div
      class="dashboard-container"
    >
      <div
        class="links-container"
      >
        <a
          class="link"
          href="https://iot.coinflex.com/users_bracket_competitions"
          rel="noreferrer noopener"
          target="_blank"
        >
          <i
            class="anticon link-icon"
          >
            <svg
              aria-hidden="true"
              class=""
              fill="currentColor"
              focusable="false"
              height="1em"
              width="1em"
            >
              bracket-order-battle.svg
            </svg>
          </i>
          <div
            class="link-name"
          >
            Bracket Order Battle
          </div>
        </a>
        <a
          class="link"
          href="https://iot.coinflex.com/flex_coins/stakings"
          rel="noreferrer noopener"
          target="_blank"
        >
          <i
            class="anticon link-icon"
          >
            <svg
              aria-hidden="true"
              class=""
              fill="currentColor"
              focusable="false"
              height="1em"
              width="1em"
            >
              wallet.svg
            </svg>
          </i>
          <div
            class="link-name"
          >
            FLEX Staking Lower Fees
          </div>
        </a>
        <a
          class="link"
          href="https://iot.coinflex.com/flex_coins/redemption"
          rel="noreferrer noopener"
          target="_blank"
        >
          <i
            class="anticon link-icon"
          >
            <svg
              aria-hidden="true"
              class=""
              fill="currentColor"
              focusable="false"
              height="1em"
              width="1em"
            >
              wallet.svg
            </svg>
          </i>
          <div
            class="link-name"
          >
            FLEX Coin
          </div>
        </a>
        <a
          class="link"
          href="https://iot.coinflex.com/deposit"
          rel="noreferrer noopener"
          target="_blank"
        >
          <i
            class="anticon link-icon"
          >
            <svg
              aria-hidden="true"
              class=""
              fill="currentColor"
              focusable="false"
              height="1em"
              width="1em"
            >
              wallet.svg
            </svg>
          </i>
          <div
            class="link-name"
          >
            Deposit
          </div>
        </a>
        <a
          class="link"
          href="https://iot.coinflex.com/withdraw"
          rel="noreferrer noopener"
          target="_blank"
        >
          <i
            class="anticon link-icon"
          >
            <svg
              aria-hidden="true"
              class=""
              fill="currentColor"
              focusable="false"
              height="1em"
              width="1em"
            >
              withdraw.svg
            </svg>
          </i>
          <div
            class="link-name"
          >
            Withdraw
          </div>
        </a>
        <a
          class="link"
          href="https://iot.coinflex.com/balances"
          rel="noreferrer noopener"
          target="_blank"
        >
          <i
            class="anticon link-icon"
          >
            <svg
              aria-hidden="true"
              class=""
              fill="currentColor"
              focusable="false"
              height="1em"
              width="1em"
            >
              accounting.svg
            </svg>
          </i>
          <div
            class="link-name"
          >
            Balances
          </div>
        </a>
        <a
          class="link"
          href="https://iot.coinflex.com/history"
          rel="noreferrer noopener"
          target="_blank"
        >
          <i
            class="anticon link-icon"
          >
            <svg
              aria-hidden="true"
              class=""
              fill="currentColor"
              focusable="false"
              height="1em"
              width="1em"
            >
              wallet.svg
            </svg>
          </i>
          <div
            class="link-name"
          >
            Accounts History
          </div>
        </a>
        <a
          class="link"
          href="https://iot.coinflex.com/trade_history"
          rel="noreferrer noopener"
          target="_blank"
        >
          <i
            class="anticon link-icon"
          >
            <svg
              aria-hidden="true"
              class=""
              fill="currentColor"
              focusable="false"
              height="1em"
              width="1em"
            >
              wallet.svg
            </svg>
          </i>
          <div
            class="link-name"
          >
            Trade History
          </div>
        </a>
        <a
          class="link"
          href="https://iot.coinflex.com/affiliates"
          rel="noreferrer noopener"
          target="_blank"
        >
          <i
            class="anticon link-icon"
          >
            <svg
              aria-hidden="true"
              class=""
              fill="currentColor"
              focusable="false"
              height="1em"
              width="1em"
            >
              affiliate.svg
            </svg>
          </i>
          <div
            class="link-name"
          >
            Affiliate Program
          </div>
        </a>
        <a
          class="link"
          href="https://iot.coinflex.com/conversions"
          rel="noreferrer noopener"
          target="_blank"
        >
          <i
            class="anticon link-icon"
          >
            <svg
              aria-hidden="true"
              class=""
              fill="currentColor"
              focusable="false"
              height="1em"
              width="1em"
            >
              wallet.svg
            </svg>
          </i>
          <div
            class="link-name"
          >
            Conversions
          </div>
        </a>
        <a
          class="link"
          href="https://iot.coinflex.com/api_access"
          rel="noreferrer noopener"
          target="_blank"
        >
          <i
            class="anticon link-icon"
          >
            <svg
              aria-hidden="true"
              class=""
              fill="currentColor"
              focusable="false"
              height="1em"
              width="1em"
            >
              api.svg
            </svg>
          </i>
          <div
            class="link-name"
          >
            API Details
          </div>
        </a>
        <a
          class="link"
          href="https://iot.coinflex.com/my_profile"
          rel="noreferrer noopener"
          target="_blank"
        >
          <i
            class="anticon link-icon"
          >
            <svg
              aria-hidden="true"
              class=""
              fill="currentColor"
              focusable="false"
              height="1em"
              width="1em"
            >
              wallet.svg
            </svg>
          </i>
          <div
            class="link-name"
          >
            Enable Stablecoin
          </div>
        </a>
      </div>
    </div>
    <i
      aria-label="icon: close"
      class="anticon anticon-close close-button"
      data-testid="close"
      tabindex="-1"
    >
      <svg
        aria-hidden="true"
        class=""
        data-icon="close"
        fill="currentColor"
        focusable="false"
        height="1em"
        viewBox="64 64 896 896"
        width="1em"
      >
        <path
          d="M563.8 512l262.5-312.9c4.4-5.2.7-13.1-6.1-13.1h-79.8c-4.7 0-9.2 2.1-12.3 5.7L511.6 449.8 295.1 191.7c-3-3.6-7.5-5.7-12.3-5.7H203c-6.8 0-10.5 7.9-6.1 13.1L459.4 512 196.9 824.9A7.95 7.95 0 0 0 203 838h79.8c4.7 0 9.2-2.1 12.3-5.7l216.5-258.1 216.5 258.1c3 3.6 7.5 5.7 12.3 5.7h79.8c6.8 0 10.5-7.9 6.1-13.1L563.8 512z"
        />
      </svg>
    </i>
  </div>
</div>
`;
