// Jest Snapshot v1, https://goo.gl/fbAQLP

exports[`RecentTrades Should match snapshot 1`] = `
<div
  class="recent-trade"
>
  <div
    class="header"
  >
    Recent Trades
  </div>
  <ul
    class="flex list-head"
  >
    <li>
      Price
       
      <span>
        USDT
      </span>
    </li>
    <li>
      Amount
       
      <span>
        BCH
      </span>
    </li>
    <li>
      Time
    </li>
  </ul>
  <div
    class="trade-list"
    id="recentScroll"
  >
    <ul />
  </div>
</div>
`;
