// Jest Snapshot v1, https://goo.gl/fbAQLP

exports[`TopNavBar tables Should match snapshot 1`] = `
<div
  class="bp3-navbar cf-navbar bp3-dark"
>
  <div
    class="bp3-navbar-group bp3-align-left"
  >
    <div
      class="bp3-navbar-heading"
    >
      <img
        alt="coinflexPng"
        src="coinflex_logo_light.png"
      />
    </div>
  </div>
  <div
    class="navbar-buttons-wrapper"
  >
    <div
      class="bp3-navbar-divider"
    />
    <a
      href="https://www.coinflex.com"
      rel="noopener noreferrer"
      target="_blank"
    >
      www.coinflex.com
    </a>
    <div
      class="bp3-navbar-divider"
    />
    <div
      class="icon-button language-dropdown top-nav-bar ant-dropdown-trigger"
    >
      <span
        aria-label="en"
        role="img"
      >
        EN
      </span>
    </div>
  </div>
</div>
`;
